{
	"formatVersion": 1,
	"appVersion": "0.43.3",
	"files": [
		{
			"isClone": false,
			"noteId": "8KKpBwen9THw",
			"notePath": [
				"8KKpBwen9THw"
			],
			"title": "Na'vi",
			"notePosition": 30,
			"prefix": null,
			"isExpanded": 1,
			"type": "text",
			"mime": "text/html",
			"attributes": [],
			"format": "html",
			"dirFileName": "Na'vi",
			"children": [
				{
					"isClone": false,
					"noteId": "jfLNpQvsoasy",
					"notePath": [
						"8KKpBwen9THw",
						"jfLNpQvsoasy"
					],
					"title": "Sentence Building",
					"notePosition": 0,
					"prefix": null,
					"isExpanded": 1,
					"type": "text",
					"mime": "text/html",
					"attributes": [
						{
							"type": "relation",
							"name": "internalLink",
							"value": "aEnMBTEH7H3A",
							"isInheritable": false,
							"position": 1
						},
						{
							"type": "relation",
							"name": "internalLink",
							"value": "gmh1HRJRhl4S",
							"isInheritable": false,
							"position": 2
						},
						{
							"type": "relation",
							"name": "internalLink",
							"value": "fG4TzB5BtHQY",
							"isInheritable": false,
							"position": 3
						},
						{
							"type": "relation",
							"name": "internalLink",
							"value": "E7pe7HKJdzTf",
							"isInheritable": false,
							"position": 4
						},
						{
							"type": "relation",
							"name": "internalLink",
							"value": "a1SWSauzwa3R",
							"isInheritable": false,
							"position": 5
						},
						{
							"type": "relation",
							"name": "internalLink",
							"value": "ZCvJDQoyAEsQ",
							"isInheritable": false,
							"position": 6
						},
						{
							"type": "relation",
							"name": "internalLink",
							"value": "QZ76f7NaRa0B",
							"isInheritable": false,
							"position": 7
						},
						{
							"type": "relation",
							"name": "internalLink",
							"value": "KSjdbFnPxmFC",
							"isInheritable": false,
							"position": 8
						},
						{
							"type": "relation",
							"name": "internalLink",
							"value": "7iZ4quoRceRv",
							"isInheritable": false,
							"position": 9
						},
						{
							"type": "relation",
							"name": "internalLink",
							"value": "Bw8WI43zvB1J",
							"isInheritable": false,
							"position": 10
						}
					],
					"format": "html",
					"dataFileName": "Sentence Building.html",
					"dirFileName": "Sentence Building",
					"children": [
						{
							"isClone": false,
							"noteId": "RyC0nw3IXYfb",
							"notePath": [
								"8KKpBwen9THw",
								"jfLNpQvsoasy",
								"RyC0nw3IXYfb"
							],
							"title": "Subject",
							"notePosition": 0,
							"prefix": null,
							"isExpanded": 0,
							"type": "text",
							"mime": "text/html",
							"attributes": [],
							"format": "html",
							"dataFileName": "Subject.html"
						},
						{
							"isClone": false,
							"noteId": "u9MAiH1vV3xn",
							"notePath": [
								"8KKpBwen9THw",
								"jfLNpQvsoasy",
								"u9MAiH1vV3xn"
							],
							"title": "Object",
							"notePosition": 10,
							"prefix": null,
							"isExpanded": 0,
							"type": "text",
							"mime": "text/html",
							"attributes": [],
							"format": "html",
							"dataFileName": "Object.html"
						},
						{
							"isClone": false,
							"noteId": "4Yswy2zDdeKy",
							"notePath": [
								"8KKpBwen9THw",
								"jfLNpQvsoasy",
								"4Yswy2zDdeKy"
							],
							"title": "Verb",
							"notePosition": 20,
							"prefix": null,
							"isExpanded": 0,
							"type": "text",
							"mime": "text/html",
							"attributes": [],
							"format": "html",
							"dataFileName": "Verb.html"
						}
					]
				},
				{
					"isClone": false,
					"noteId": "Rwk2zABUYm8X",
					"notePath": [
						"8KKpBwen9THw",
						"Rwk2zABUYm8X"
					],
					"title": "Posession",
					"notePosition": 20,
					"prefix": null,
					"isExpanded": 0,
					"type": "text",
					"mime": "text/html",
					"attributes": [],
					"format": "html",
					"dataFileName": "Posession.html"
				},
				{
					"isClone": false,
					"noteId": "e5emMfaiqzlf",
					"notePath": [
						"8KKpBwen9THw",
						"e5emMfaiqzlf"
					],
					"title": "Attribution",
					"notePosition": 30,
					"prefix": null,
					"isExpanded": 1,
					"type": "text",
					"mime": "text/html",
					"attributes": [
						{
							"type": "relation",
							"name": "internalLink",
							"value": "9bdLjT27Kpi8",
							"isInheritable": false,
							"position": 1
						},
						{
							"type": "relation",
							"name": "internalLink",
							"value": "awo7kewvPmnG",
							"isInheritable": false,
							"position": 2
						},
						{
							"type": "relation",
							"name": "internalLink",
							"value": "wkE9qUSP4XvI",
							"isInheritable": false,
							"position": 3
						},
						{
							"type": "relation",
							"name": "internalLink",
							"value": "BlOA4rV7eDmw",
							"isInheritable": false,
							"position": 4
						}
					],
					"format": "html",
					"dataFileName": "Attribution.html"
				},
				{
					"isClone": false,
					"noteId": "UCin8rpvf040",
					"notePath": [
						"8KKpBwen9THw",
						"UCin8rpvf040"
					],
					"title": "Vocabulary",
					"notePosition": 40,
					"prefix": null,
					"isExpanded": 1,
					"type": "book",
					"mime": "",
					"attributes": [],
					"dataFileName": "Vocabulary.dat",
					"dirFileName": "Vocabulary",
					"children": [
						{
							"isClone": false,
							"noteId": "wkE9qUSP4XvI",
							"notePath": [
								"8KKpBwen9THw",
								"UCin8rpvf040",
								"wkE9qUSP4XvI"
							],
							"title": "apxa",
							"notePosition": 10,
							"prefix": null,
							"isExpanded": 0,
							"type": "text",
							"mime": "text/html",
							"attributes": [],
							"format": "html",
							"dataFileName": "apxa.html"
						},
						{
							"isClone": false,
							"noteId": "awo7kewvPmnG",
							"notePath": [
								"8KKpBwen9THw",
								"UCin8rpvf040",
								"awo7kewvPmnG"
							],
							"title": "ean",
							"notePosition": 20,
							"prefix": null,
							"isExpanded": 0,
							"type": "text",
							"mime": "text/html",
							"attributes": [],
							"format": "html",
							"dataFileName": "ean.html"
						},
						{
							"isClone": false,
							"noteId": "ZCvJDQoyAEsQ",
							"notePath": [
								"8KKpBwen9THw",
								"UCin8rpvf040",
								"ZCvJDQoyAEsQ"
							],
							"title": "inan",
							"notePosition": 30,
							"prefix": null,
							"isExpanded": 0,
							"type": "text",
							"mime": "text/html",
							"attributes": [],
							"format": "html",
							"dataFileName": "inan.html"
						},
						{
							"isClone": false,
							"noteId": "DCEcp8d2IqcS",
							"notePath": [
								"8KKpBwen9THw",
								"UCin8rpvf040",
								"DCEcp8d2IqcS"
							],
							"title": "ioang",
							"notePosition": 40,
							"prefix": null,
							"isExpanded": 0,
							"type": "text",
							"mime": "text/html",
							"attributes": [],
							"format": "html",
							"dataFileName": "ioang.html"
						},
						{
							"isClone": false,
							"noteId": "6k602kfGhhaH",
							"notePath": [
								"8KKpBwen9THw",
								"UCin8rpvf040",
								"6k602kfGhhaH"
							],
							"title": "new note",
							"notePosition": 60,
							"prefix": null,
							"isExpanded": 1,
							"type": "text",
							"mime": "text/html",
							"attributes": [],
							"format": "html",
							"dataFileName": "new note.html"
						},
						{
							"isClone": false,
							"noteId": "E7pe7HKJdzTf",
							"notePath": [
								"8KKpBwen9THw",
								"UCin8rpvf040",
								"E7pe7HKJdzTf"
							],
							"title": "kelku",
							"notePosition": 70,
							"prefix": null,
							"isExpanded": 1,
							"type": "text",
							"mime": "text/html",
							"attributes": [],
							"format": "html",
							"dataFileName": "kelku.html"
						},
						{
							"isClone": false,
							"noteId": "9bdLjT27Kpi8",
							"notePath": [
								"8KKpBwen9THw",
								"UCin8rpvf040",
								"9bdLjT27Kpi8"
							],
							"title": "lefpom",
							"notePosition": 80,
							"prefix": null,
							"isExpanded": 0,
							"type": "text",
							"mime": "text/html",
							"attributes": [],
							"format": "html",
							"dataFileName": "lefpom.html"
						},
						{
							"isClone": false,
							"noteId": "a1SWSauzwa3R",
							"notePath": [
								"8KKpBwen9THw",
								"UCin8rpvf040",
								"a1SWSauzwa3R"
							],
							"title": "nga",
							"notePosition": 90,
							"prefix": null,
							"isExpanded": 0,
							"type": "text",
							"mime": "text/html",
							"attributes": [],
							"format": "html",
							"dataFileName": "nga.html"
						},
						{
							"isClone": false,
							"noteId": "aEnMBTEH7H3A",
							"notePath": [
								"8KKpBwen9THw",
								"UCin8rpvf040",
								"aEnMBTEH7H3A"
							],
							"title": "oe",
							"notePosition": 100,
							"prefix": null,
							"isExpanded": 0,
							"type": "text",
							"mime": "text/html",
							"attributes": [],
							"format": "html",
							"dataFileName": "oe.html"
						},
						{
							"isClone": false,
							"noteId": "Rdjt3IWZzjaM",
							"notePath": [
								"8KKpBwen9THw",
								"UCin8rpvf040",
								"Rdjt3IWZzjaM"
							],
							"title": "pam",
							"notePosition": 110,
							"prefix": null,
							"isExpanded": 0,
							"type": "text",
							"mime": "text/html",
							"attributes": [],
							"format": "html",
							"dataFileName": "pam.html"
						},
						{
							"isClone": false,
							"noteId": "KSjdbFnPxmFC",
							"notePath": [
								"8KKpBwen9THw",
								"UCin8rpvf040",
								"KSjdbFnPxmFC"
							],
							"title": "pamtseo",
							"notePosition": 120,
							"prefix": null,
							"isExpanded": 0,
							"type": "text",
							"mime": "text/html",
							"attributes": [
								{
									"type": "relation",
									"name": "internalLink",
									"value": "Rdjt3IWZzjaM",
									"isInheritable": false,
									"position": 1
								},
								{
									"type": "relation",
									"name": "internalLink",
									"value": "6E8B46Gzs6cI",
									"isInheritable": false,
									"position": 2
								}
							],
							"format": "html",
							"dataFileName": "pamtseo.html"
						},
						{
							"isClone": false,
							"noteId": "A4if39w8ejUc",
							"notePath": [
								"8KKpBwen9THw",
								"UCin8rpvf040",
								"A4if39w8ejUc"
							],
							"title": "pay",
							"notePosition": 130,
							"prefix": null,
							"isExpanded": 0,
							"type": "text",
							"mime": "text/html",
							"attributes": [],
							"format": "html",
							"dataFileName": "pay.html"
						},
						{
							"isClone": false,
							"noteId": "BlOA4rV7eDmw",
							"notePath": [
								"8KKpBwen9THw",
								"UCin8rpvf040",
								"BlOA4rV7eDmw"
							],
							"title": "payoang",
							"notePosition": 140,
							"prefix": null,
							"isExpanded": 0,
							"type": "text",
							"mime": "text/html",
							"attributes": [
								{
									"type": "relation",
									"name": "internalLink",
									"value": "A4if39w8ejUc",
									"isInheritable": false,
									"position": 2
								},
								{
									"type": "relation",
									"name": "internalLink",
									"value": "DCEcp8d2IqcS",
									"isInheritable": false,
									"position": 3
								}
							],
							"format": "html",
							"dataFileName": "payoang.html"
						},
						{
							"isClone": false,
							"noteId": "7iZ4quoRceRv",
							"notePath": [
								"8KKpBwen9THw",
								"UCin8rpvf040",
								"7iZ4quoRceRv"
							],
							"title": "po",
							"notePosition": 150,
							"prefix": null,
							"isExpanded": 0,
							"type": "text",
							"mime": "text/html",
							"attributes": [],
							"format": "html",
							"dataFileName": "po.html"
						},
						{
							"isClone": false,
							"noteId": "QZ76f7NaRa0B",
							"notePath": [
								"8KKpBwen9THw",
								"UCin8rpvf040",
								"QZ76f7NaRa0B"
							],
							"title": "puk",
							"notePosition": 160,
							"prefix": null,
							"isExpanded": 0,
							"type": "text",
							"mime": "text/html",
							"attributes": [],
							"format": "html",
							"dataFileName": "puk.html"
						},
						{
							"isClone": false,
							"noteId": "rgrJTlflCnAu",
							"notePath": [
								"8KKpBwen9THw",
								"UCin8rpvf040",
								"rgrJTlflCnAu"
							],
							"title": "stawm",
							"notePosition": 170,
							"prefix": null,
							"isExpanded": 0,
							"type": "text",
							"mime": "text/html",
							"attributes": [],
							"format": "html",
							"dataFileName": "stawm.html"
						},
						{
							"isClone": false,
							"noteId": "fG4TzB5BtHQY",
							"notePath": [
								"8KKpBwen9THw",
								"UCin8rpvf040",
								"fG4TzB5BtHQY"
							],
							"title": "tok",
							"notePosition": 180,
							"prefix": null,
							"isExpanded": 0,
							"type": "text",
							"mime": "text/html",
							"attributes": [],
							"format": "html",
							"dataFileName": "tok.html"
						},
						{
							"isClone": false,
							"noteId": "6E8B46Gzs6cI",
							"notePath": [
								"8KKpBwen9THw",
								"UCin8rpvf040",
								"6E8B46Gzs6cI"
							],
							"title": "tseo",
							"notePosition": 190,
							"prefix": null,
							"isExpanded": 0,
							"type": "text",
							"mime": "text/html",
							"attributes": [],
							"format": "html",
							"dataFileName": "tseo.html"
						},
						{
							"isClone": false,
							"noteId": "gmh1HRJRhl4S",
							"notePath": [
								"8KKpBwen9THw",
								"UCin8rpvf040",
								"gmh1HRJRhl4S"
							],
							"title": "tul",
							"notePosition": 200,
							"prefix": null,
							"isExpanded": 0,
							"type": "text",
							"mime": "text/html",
							"attributes": [],
							"format": "html",
							"dataFileName": "tul.html"
						},
						{
							"isClone": false,
							"noteId": "rvZ2H0hg8xyZ",
							"notePath": [
								"8KKpBwen9THw",
								"UCin8rpvf040",
								"rvZ2H0hg8xyZ"
							],
							"title": "yom",
							"notePosition": 210,
							"prefix": null,
							"isExpanded": 0,
							"type": "text",
							"mime": "text/html",
							"attributes": [],
							"format": "html",
							"dataFileName": "yom.html"
						},
						{
							"isClone": false,
							"noteId": "Bw8WI43zvB1J",
							"notePath": [
								"8KKpBwen9THw",
								"UCin8rpvf040",
								"Bw8WI43zvB1J"
							],
							"title": "yune",
							"notePosition": 220,
							"prefix": null,
							"isExpanded": 0,
							"type": "text",
							"mime": "text/html",
							"attributes": [],
							"format": "html",
							"dataFileName": "yune.html"
						}
					]
				}
			]
		},
		{
			"noImport": true,
			"dataFileName": "navigation.html"
		},
		{
			"noImport": true,
			"dataFileName": "index.html"
		},
		{
			"noImport": true,
			"dataFileName": "style.css"
		}
	]
}